[
  {
    "action": "deny",
    "creationDate": "2024-05-31T11:12:00Z",
    "expiryDate": "2024-06-01T11:12:00Z",
    "factoryHelpText": "#generated\naction: deny\ndate: 738846720.952822\ndirection: outgoing\norigin: alert\npeer: a19.dscg10.akamai.net\nport: 80\nprocessPath: /Applications/Firefox.app/Contents/MacOS/firefox\nprotocol: 6\nviaProcessPath: /Applications/Firefox.app/Contents/MacOS/firefox\n",
    "lastUsed": 738847024,
    "lifetime": "untilExpiryDate",
    "modificationDate": "2024-05-31T11:12:00Z",
    "origin": "alert",
    "process": "identifier.43AQ936H96/org.mozilla.firefox",
    "remote-hosts": "a19.dscg10.akamai.net",
    "uid": 501,
    "useCount": 6
  },
  {
    "action": "deny",
    "creationDate": "2024-05-12T22:37:26Z",
    "expiryDate": "2024-06-11T22:37:26Z",
    "factoryHelpText": "#generated\naction: deny\ndate: 737246246.076135\ndirection: outgoing\norigin: alert\npeer: edge.microsoft.com\nport: 443\nprocessPath: /Library/Application Support/Microsoft/EdgeUpdater/118.0.2088.86/EdgeUpdater.app/Contents/MacOS/EdgeUpdater\nprotocol: 6\nviaProcessPath: /Library/Application Support/Microsoft/EdgeUpdater/118.0.2088.86/EdgeUpdater.app/Contents/MacOS/EdgeUpdater\n",
    "lastUsed": 738798883,
    "lifetime": "untilExpiryDate",
    "modificationDate": "2024-05-12T22:37:26Z",
    "origin": "alert",
    "owner": "system",
    "process": "/Library/Application Support/Microsoft/EdgeUpdater/118.0.2088.86/EdgeUpdater.app/Contents/MacOS/EdgeUpdater",
    "remote-hosts": "edge.microsoft.com",
    "useCount": 350
  }
]